info face="ZP10x10" size=12 bold=0 italic=0 smooth=0 spacing=0,2
common lineHeight=19 base=12 scaleW=112 scaleH=108 pages=1
page id=0 file="zp10x10_medium_12.PNG"
char id=32 x=1 y=12 width=1 height=1 xoffset=0 yoffset=11 xadvance=5 page=0
char id=33 x=3 y=3 width=2 height=10 xoffset=2 yoffset=2 xadvance=5 page=0
char id=34 x=6 y=3 width=6 height=6 xoffset=0 yoffset=2 xadvance=7 page=0
char id=35 x=13 y=3 width=10 height=10 xoffset=0 yoffset=2 xadvance=11 page=0
char id=36 x=24 y=1 width=10 height=14 xoffset=0 yoffset=0 xadvance=11 page=0
char id=37 x=35 y=3 width=10 height=10 xoffset=0 yoffset=2 xadvance=11 page=0
char id=38 x=46 y=3 width=10 height=10 xoffset=0 yoffset=2 xadvance=11 page=0
char id=39 x=57 y=3 width=2 height=6 xoffset=0 yoffset=2 xadvance=3 page=0
char id=40 x=60 y=3 width=4 height=10 xoffset=0 yoffset=2 xadvance=5 page=0
char id=41 x=65 y=3 width=4 height=10 xoffset=0 yoffset=2 xadvance=5 page=0
char id=42 x=70 y=5 width=8 height=8 xoffset=0 yoffset=4 xadvance=9 page=0
char id=43 x=79 y=5 width=8 height=8 xoffset=0 yoffset=4 xadvance=9 page=0
char id=44 x=88 y=10 width=3 height=5 xoffset=2 yoffset=9 xadvance=6 page=0
char id=45 x=92 y=7 width=6 height=2 xoffset=0 yoffset=6 xadvance=7 page=0
char id=46 x=99 y=10 width=3 height=3 xoffset=2 yoffset=9 xadvance=6 page=0
char id=47 x=103 y=3 width=6 height=10 xoffset=0 yoffset=2 xadvance=7 page=0
char id=48 x=1 y=16 width=8 height=10 xoffset=0 yoffset=2 xadvance=9 page=0
char id=49 x=10 y=16 width=6 height=10 xoffset=0 yoffset=2 xadvance=7 page=0
char id=50 x=17 y=16 width=8 height=10 xoffset=0 yoffset=2 xadvance=9 page=0
char id=51 x=26 y=16 width=8 height=10 xoffset=0 yoffset=2 xadvance=9 page=0
char id=52 x=35 y=16 width=8 height=10 xoffset=0 yoffset=2 xadvance=9 page=0
char id=53 x=44 y=16 width=8 height=10 xoffset=0 yoffset=2 xadvance=9 page=0
char id=54 x=53 y=16 width=8 height=10 xoffset=0 yoffset=2 xadvance=9 page=0
char id=55 x=62 y=16 width=8 height=10 xoffset=0 yoffset=2 xadvance=9 page=0
char id=56 x=71 y=16 width=8 height=10 xoffset=0 yoffset=2 xadvance=9 page=0
char id=57 x=80 y=16 width=8 height=10 xoffset=0 yoffset=2 xadvance=9 page=0
char id=58 x=89 y=16 width=4 height=10 xoffset=2 yoffset=2 xadvance=7 page=0
char id=59 x=94 y=16 width=4 height=14 xoffset=2 yoffset=2 xadvance=7 page=0
char id=60 x=99 y=20 width=8 height=6 xoffset=0 yoffset=6 xadvance=9 page=0
char id=61 x=1 y=35 width=8 height=6 xoffset=0 yoffset=6 xadvance=9 page=0
char id=62 x=10 y=35 width=8 height=6 xoffset=0 yoffset=6 xadvance=9 page=0
char id=63 x=19 y=31 width=10 height=10 xoffset=0 yoffset=2 xadvance=11 page=0
char id=64 x=30 y=31 width=10 height=10 xoffset=0 yoffset=2 xadvance=11 page=0
char id=65 x=41 y=31 width=10 height=10 xoffset=0 yoffset=2 xadvance=11 page=0
char id=66 x=52 y=31 width=10 height=10 xoffset=0 yoffset=2 xadvance=11 page=0
char id=67 x=63 y=31 width=10 height=10 xoffset=0 yoffset=2 xadvance=11 page=0
char id=68 x=74 y=31 width=10 height=10 xoffset=0 yoffset=2 xadvance=11 page=0
char id=69 x=85 y=31 width=10 height=10 xoffset=0 yoffset=2 xadvance=11 page=0
char id=70 x=96 y=31 width=10 height=10 xoffset=0 yoffset=2 xadvance=11 page=0
char id=71 x=1 y=42 width=10 height=10 xoffset=0 yoffset=2 xadvance=11 page=0
char id=72 x=12 y=42 width=10 height=10 xoffset=0 yoffset=2 xadvance=11 page=0
char id=73 x=23 y=42 width=10 height=10 xoffset=0 yoffset=2 xadvance=11 page=0
char id=74 x=34 y=42 width=10 height=10 xoffset=0 yoffset=2 xadvance=11 page=0
char id=75 x=45 y=42 width=10 height=10 xoffset=0 yoffset=2 xadvance=11 page=0
char id=76 x=56 y=42 width=10 height=10 xoffset=0 yoffset=2 xadvance=11 page=0
char id=77 x=67 y=42 width=10 height=10 xoffset=0 yoffset=2 xadvance=11 page=0
char id=78 x=78 y=42 width=10 height=10 xoffset=0 yoffset=2 xadvance=11 page=0
char id=79 x=89 y=42 width=10 height=10 xoffset=0 yoffset=2 xadvance=11 page=0
char id=80 x=100 y=42 width=10 height=10 xoffset=0 yoffset=2 xadvance=11 page=0
char id=81 x=1 y=53 width=10 height=10 xoffset=0 yoffset=2 xadvance=11 page=0
char id=82 x=12 y=53 width=10 height=10 xoffset=0 yoffset=2 xadvance=11 page=0
char id=83 x=23 y=53 width=10 height=10 xoffset=0 yoffset=2 xadvance=11 page=0
char id=84 x=34 y=53 width=10 height=10 xoffset=0 yoffset=2 xadvance=11 page=0
char id=85 x=45 y=53 width=10 height=10 xoffset=0 yoffset=2 xadvance=11 page=0
char id=86 x=56 y=53 width=10 height=10 xoffset=0 yoffset=2 xadvance=11 page=0
char id=87 x=67 y=53 width=10 height=10 xoffset=0 yoffset=2 xadvance=11 page=0
char id=88 x=78 y=53 width=10 height=10 xoffset=0 yoffset=2 xadvance=11 page=0
char id=89 x=89 y=53 width=10 height=10 xoffset=0 yoffset=2 xadvance=11 page=0
char id=90 x=100 y=53 width=10 height=10 xoffset=0 yoffset=2 xadvance=11 page=0
char id=91 x=1 y=64 width=4 height=10 xoffset=0 yoffset=2 xadvance=5 page=0
char id=92 x=6 y=64 width=6 height=10 xoffset=0 yoffset=2 xadvance=7 page=0
char id=93 x=13 y=64 width=4 height=10 xoffset=0 yoffset=2 xadvance=5 page=0
char id=94 x=18 y=64 width=6 height=6 xoffset=0 yoffset=2 xadvance=7 page=0
char id=95 x=25 y=72 width=8 height=2 xoffset=0 yoffset=10 xadvance=9 page=0
char id=96 x=34 y=64 width=4 height=6 xoffset=0 yoffset=2 xadvance=5 page=0
char id=97 x=39 y=66 width=8 height=8 xoffset=0 yoffset=4 xadvance=9 page=0
char id=98 x=48 y=64 width=8 height=10 xoffset=0 yoffset=2 xadvance=9 page=0
char id=99 x=57 y=66 width=8 height=8 xoffset=0 yoffset=4 xadvance=9 page=0
char id=100 x=66 y=64 width=8 height=10 xoffset=0 yoffset=2 xadvance=9 page=0
char id=101 x=75 y=66 width=8 height=8 xoffset=0 yoffset=4 xadvance=9 page=0
char id=102 x=84 y=64 width=8 height=10 xoffset=0 yoffset=2 xadvance=9 page=0
char id=103 x=93 y=66 width=8 height=12 xoffset=0 yoffset=4 xadvance=9 page=0
char id=104 x=102 y=64 width=8 height=10 xoffset=0 yoffset=2 xadvance=9 page=0
char id=105 x=1 y=79 width=2 height=10 xoffset=0 yoffset=2 xadvance=3 page=0
char id=106 x=4 y=79 width=4 height=12 xoffset=-2 yoffset=2 xadvance=3 page=0
char id=107 x=9 y=79 width=8 height=10 xoffset=0 yoffset=2 xadvance=9 page=0
char id=108 x=18 y=79 width=4 height=10 xoffset=0 yoffset=2 xadvance=5 page=0
char id=109 x=23 y=81 width=10 height=8 xoffset=0 yoffset=4 xadvance=11 page=0
char id=110 x=34 y=81 width=8 height=8 xoffset=0 yoffset=4 xadvance=9 page=0
char id=111 x=43 y=81 width=8 height=8 xoffset=0 yoffset=4 xadvance=9 page=0
char id=112 x=52 y=81 width=8 height=10 xoffset=0 yoffset=4 xadvance=9 page=0
char id=113 x=61 y=81 width=8 height=10 xoffset=0 yoffset=4 xadvance=9 page=0
char id=114 x=70 y=81 width=8 height=8 xoffset=0 yoffset=4 xadvance=9 page=0
char id=115 x=79 y=81 width=8 height=8 xoffset=0 yoffset=4 xadvance=9 page=0
char id=116 x=88 y=79 width=8 height=10 xoffset=0 yoffset=2 xadvance=9 page=0
char id=117 x=97 y=81 width=8 height=8 xoffset=0 yoffset=4 xadvance=9 page=0
char id=118 x=1 y=96 width=8 height=8 xoffset=0 yoffset=4 xadvance=9 page=0
char id=119 x=10 y=96 width=10 height=8 xoffset=0 yoffset=4 xadvance=11 page=0
char id=120 x=21 y=96 width=8 height=8 xoffset=0 yoffset=4 xadvance=9 page=0
char id=121 x=30 y=96 width=8 height=10 xoffset=0 yoffset=4 xadvance=9 page=0
char id=122 x=39 y=96 width=8 height=8 xoffset=0 yoffset=4 xadvance=9 page=0
char id=123 x=48 y=94 width=6 height=10 xoffset=0 yoffset=2 xadvance=7 page=0
char id=124 x=55 y=92 width=2 height=14 xoffset=0 yoffset=0 xadvance=3 page=0
char id=125 x=58 y=94 width=6 height=10 xoffset=0 yoffset=2 xadvance=7 page=0
char id=126 x=65 y=98 width=8 height=4 xoffset=0 yoffset=6 xadvance=9 page=0
